2020-07-04T19:12:06+00:00 CRITICAL Cannot redeclare newstore_content_width() (previously declared in D:\wamp64\www\Multivendor\wp-content\themes\newstore-child\functions.php:140) in D:\wamp64\www\Multivendor\wp-content\themes\newstore\functions.php on line 131

2020-07-04T19:13:22+00:00 CRITICAL Cannot redeclare newstore_widgets_init() (previously declared in D:\wamp64\www\Multivendor\wp-content\themes\newstore-child\functions.php:139) in D:\wamp64\www\Multivendor\wp-content\themes\newstore\functions.php on line 220

2020-07-04T19:13:45+00:00 CRITICAL Cannot redeclare newstore_register_custom_scripts() (previously declared in D:\wamp64\www\Multivendor\wp-content\themes\newstore-child\functions.php:262) in D:\wamp64\www\Multivendor\wp-content\themes\newstore\functions.php on line 264

2020-07-04T19:14:15+00:00 CRITICAL Cannot redeclare newstore_register_last_scripts() (previously declared in D:\wamp64\www\Multivendor\wp-content\themes\newstore-child\functions.php:267) in D:\wamp64\www\Multivendor\wp-content\themes\newstore\functions.php on line 269

2020-07-04T19:14:57+00:00 CRITICAL Cannot redeclare newstore_hide_customizer_notice() (previously declared in D:\wamp64\www\Multivendor\wp-content\themes\newstore\admin\inc\plugin-include-control.php:94) in D:\wamp64\www\Multivendor\wp-content\themes\newstore\admin\inc\plugin-include-control.php on line 101

2020-07-04T19:16:27+00:00 CRITICAL Cannot redeclare newstore_hide_customizer_notice() (previously declared in D:\wamp64\www\Multivendor\wp-content\themes\newstore\admin\inc\plugin-include-control.php:94) in D:\wamp64\www\Multivendor\wp-content\themes\newstore\admin\inc\plugin-include-control.php on line 101

2020-07-04T19:16:44+00:00 CRITICAL Cannot redeclare newstore_hide_customizer_notice() (previously declared in D:\wamp64\www\Multivendor\wp-content\themes\newstore\admin\inc\plugin-include-control.php:94) in D:\wamp64\www\Multivendor\wp-content\themes\newstore\admin\inc\plugin-include-control.php on line 101

